{
	"id": "548658e6-66cf-4f28-a559-e96bcd4e7d26",
	"name": "Simple book API",
	"values": [
		{
			"key": "baseUrl",
			"value": "https://simple-books-api.glitch.me",
			"type": "default",
			"enabled": true
		},
		{
			"key": "accessToken",
			"value": "aff2d27c7e18e76b8f61b2df8fe55f6bcd82155409bd177302774224ef19a924",
			"type": "default",
			"enabled": true
		},
		{
			"key": "clientName",
			"value": "pep",
			"type": "default",
			"enabled": true
		},
		{
			"key": "clientEmail",
			"value": "pep@example.com",
			"type": "default",
			"enabled": true
		}
	],
	"_postman_variable_scope": "environment",
	"_postman_exported_at": "2022-04-05T04:31:19.561Z",
	"_postman_exported_using": "Postman/9.15.10"
}
